Querying a SOMA experiment • tiledbsoma
…
As a reminder arrow:Table can be easily cast into a tibble

obs$to_data_frame()
#> # A tibble: 80 × 9
#>    soma_joinid orig.ident  nCount_RNA nFeature_RNA RNA_snn_res.0.8 letter.idents
#>          <int> <chr>            <dbl>        <int> <chr>           <chr>        
#>  1           0 SeuratProj…         70           47 0               A            
#>  2           1 SeuratProj…         85           52 0               A            
#>  3           2 SeuratProj…         87           50 1               B            
#>  4           3 SeuratProj…        127           56 0               A            
#>  5           4 SeuratProj…        173           53 0               A            
#>  6           5 SeuratProj…         70           48 0               A            
#>  7           6 SeuratProj…         64           36 0               A            
#>  8           7 SeuratProj…         72           45 0               A            
#>  9           8 SeuratProj…         52           36 0               A            
#> 10           9 SeuratProj…        100           41 0               A            
#> # ℹ 70 more rows
#> # ℹ 3 more variables: groups <chr>, RNA_snn_res.1 <chr>, obs_id <chr>
…
Let’s see how many observations this query identified.

query$n_obs
#> [1] 26

As before, we can load the obs data frame into memory but now it only includes the filtered observations.

obs <- query$obs(column_names = c("obs_id", "nCount_RNA"))$concat()
obs$to_data_frame()
#> # A tibble: 26 × 2
#>    obs_id         nCount_RNA
#>    <chr>               <dbl>
#>  1 TGACTGGATTCTCA        127
#>  2 AGTCAGACTGCACA        173
#>  3 AGAGATGATCTCGC        191
#>  4 GGGTAACTCTAGTG        101
#>  5 CTAAACCTGTGCAT        168
#>  6 TTGGTACTGAATCC        135
#>  7 TACATCACGCTAAC        109
#>  8 TTACCATGAATCGC        298
#>  9 ATAGGAGAAACAGA        406
#> 10 GCGCACGACTTTAC        213
#> # ℹ 16 more rows
…
