Reading from SOMA objects • tiledbsoma
…
This is easily converted into a data.frame using Arrow’s methods:

obs$read()$to_data_frame()

## # A tibble: 80 × 9
##    soma_joinid orig.ident  nCount_RNA nFeature_RNA RNA_snn_res.0.8 letter.idents
##          <int> <chr>            <dbl>        <int> <chr>           <chr>        
##  1           0 SeuratProj…         70           47 0               A            
##  2           1 SeuratProj…         85           52 0               A            
##  3           2 SeuratProj…         87           50 1               B            
##  4           3 SeuratProj…        127           56 0               A            
##  5           4 SeuratProj…        173           53 0               A            
##  6           5 SeuratProj…         70           48 0               A            
##  7           6 SeuratProj…         64           36 0               A            
##  8           7 SeuratProj…         72           45 0               A            
##  9           8 SeuratProj…         52           36 0               A            
## 10           9 SeuratProj…        100           41 0               A            
## # ℹ 70 more rows
## # ℹ 3 more variables: groups <chr>, RNA_snn_res.1 <chr>, obs_id <chr>
…
## Table
## 5 rows x 2 columns
## $obs_id <large_string>
## $groups <large_string>

Filtering

In addition to slicing by coordinates you can also apply filters to the data using the value_filter argument. These expressions are pushed down to the TileDB engine and efficiently applied to the data on disk. Here are a few examples.

Identify all cells in the "g1" group:

obs$read(value_filter = "groups == 'g1'")$to_data_frame()

## # A tibble: 44 × 9
##    soma_joinid orig.ident  nCount_RNA nFeature_RNA RNA_snn_res.0.8 letter.idents
##          <int> <chr>            <dbl>        <int> <chr>           <chr>        
##  1           1 SeuratProj…         85           52 0               A            
##  2           5 SeuratProj…         70           48 0               A            
##  3           6 SeuratProj…         64           36 0               A            
##  4           7 SeuratProj…         72           45 0               A            
##  5           8 SeuratProj…         52           36 0               A            
##  6           9 SeuratProj…        100           41 0               A            
##  7          11 SeuratProj…        191           61 0               A            
##  8          15 SeuratProj…        168           44 0               A            
##  9          17 SeuratProj…        135           45 0               A            
## 10          18 SeuratProj…         79           43 0               A            
## # ℹ 34 more rows
## # ℹ 3 more variables: groups <chr>, RNA_snn_res.1 <chr>, obs_id <chr>

Identify all cells in the "g1" or "g2" group:

obs$read(value_filter = "groups == 'g1' | groups == 'g2'")$to_data_frame()

## # A tibble: 80 × 9
##    soma_joinid orig.ident  nCount_RNA nFeature_RNA RNA_snn_res.0.8 letter.idents
##          <int> <chr>            <dbl>        <int> <chr>           <chr>        
##  1           0 SeuratProj…         70           47 0               A            
##  2           1 SeuratProj…         85           52 0               A            
##  3           2 SeuratProj…         87           50 1               B            
##  4           3 SeuratProj…        127           56 0               A            
##  5           4 SeuratProj…        173           53 0               A            
##  6           5 SeuratProj…         70           48 0               A            
##  7           6 SeuratProj…         64           36 0               A            
##  8           7 SeuratProj…         72           45 0               A            
##  9           8 SeuratProj…         52           36 0               A            
## 10           9 SeuratProj…        100           41 0               A            
## # ℹ 70 more rows
## # ℹ 3 more variables: groups <chr>, RNA_snn_res.1 <chr>, obs_id <chr>

Altenratively, you can use the %in% operator:

obs$read(value_filter = "groups %in% c('g1', 'g2')")$to_data_frame()

## # A tibble: 80 × 9
##    soma_joinid orig.ident  nCount_RNA nFeature_RNA RNA_snn_res.0.8 letter.idents
##          <int> <chr>            <dbl>        <int> <chr>           <chr>        
##  1           0 SeuratProj…         70           47 0               A            
##  2           1 SeuratProj…         85           52 0               A            
##  3           2 SeuratProj…         87           50 1               B            
##  4           3 SeuratProj…        127           56 0               A            
##  5           4 SeuratProj…        173           53 0               A            
##  6           5 SeuratProj…         70           48 0               A            
##  7           6 SeuratProj…         64           36 0               A            
##  8           7 SeuratProj…         72           45 0               A            
##  9           8 SeuratProj…         52           36 0               A            
## 10           9 SeuratProj…        100           41 0               A            
## # ℹ 70 more rows
## # ℹ 3 more variables: groups <chr>, RNA_snn_res.1 <chr>, obs_id <chr>
…
